<?xml version="1.0" encoding="UTF-8" standalone="no"?>
<!-- Created with Inkscape (http://www.inkscape.org/) -->

<svg
   xmlns:dc="http://purl.org/dc/elements/1.1/"
   xmlns:cc="http://creativecommons.org/ns#"
   xmlns:rdf="http://www.w3.org/1999/02/22-rdf-syntax-ns#"
   xmlns:svg="http://www.w3.org/2000/svg"
   xmlns="http://www.w3.org/2000/svg"
   xmlns:sodipodi="http://sodipodi.sourceforge.net/DTD/sodipodi-0.dtd"
   xmlns:inkscape="http://www.inkscape.org/namespaces/inkscape"
   width="651.10822"
   height="393.1181"
   viewBox="0 0 55.344199 33.415039"
   version="1.1"
   id="svg8"
   inkscape:version="0.92.4 5da689c313, 2019-01-14"
   sodipodi:docname="sv_pipeline.svg">
  <defs
     id="defs2">
    <marker
       inkscape:isstock="true"
       style="overflow:visible"
       id="marker3872"
       refX="0"
       refY="0"
       orient="auto"
       inkscape:stockid="TriangleOutS">
      <path
         transform="scale(0.2)"
         style="fill:#000000;fill-opacity:1;fill-rule:evenodd;stroke:#000000;stroke-width:1.00000003pt;stroke-opacity:1"
         d="M 5.77,0 -2.88,5 V -5 Z"
         id="path3870"
         inkscape:connector-curvature="0" />
    </marker>
    <marker
       inkscape:isstock="true"
       style="overflow:visible"
       id="marker3442"
       refX="0"
       refY="0"
       orient="auto"
       inkscape:stockid="TriangleOutS">
      <path
         transform="scale(0.2)"
         style="fill:#000000;fill-opacity:1;fill-rule:evenodd;stroke:#000000;stroke-width:1.00000003pt;stroke-opacity:1"
         d="M 5.77,0 -2.88,5 V -5 Z"
         id="path3440"
         inkscape:connector-curvature="0" />
    </marker>
    <marker
       inkscape:isstock="true"
       style="overflow:visible"
       id="marker3292"
       refX="0"
       refY="0"
       orient="auto"
       inkscape:stockid="TriangleOutS">
      <path
         transform="scale(0.2)"
         style="fill:#000000;fill-opacity:1;fill-rule:evenodd;stroke:#000000;stroke-width:1.00000003pt;stroke-opacity:1"
         d="M 5.77,0 -2.88,5 V -5 Z"
         id="path3290"
         inkscape:connector-curvature="0" />
    </marker>
    <marker
       inkscape:isstock="true"
       style="overflow:visible"
       id="marker3156"
       refX="0"
       refY="0"
       orient="auto"
       inkscape:stockid="TriangleOutS">
      <path
         transform="scale(0.2)"
         style="fill:#000000;fill-opacity:1;fill-rule:evenodd;stroke:#000000;stroke-width:1.00000003pt;stroke-opacity:1"
         d="M 5.77,0 -2.88,5 V -5 Z"
         id="path3154"
         inkscape:connector-curvature="0" />
    </marker>
    <marker
       inkscape:isstock="true"
       style="overflow:visible"
       id="marker3104"
       refX="0"
       refY="0"
       orient="auto"
       inkscape:stockid="TriangleOutS">
      <path
         transform="scale(0.2)"
         style="fill:#000000;fill-opacity:1;fill-rule:evenodd;stroke:#000000;stroke-width:1.00000003pt;stroke-opacity:1"
         d="M 5.77,0 -2.88,5 V -5 Z"
         id="path3102"
         inkscape:connector-curvature="0" />
    </marker>
    <marker
       inkscape:stockid="TriangleOutS"
       orient="auto"
       refY="0"
       refX="0"
       id="TriangleOutS"
       style="overflow:visible"
       inkscape:isstock="true"
       inkscape:collect="always">
      <path
         id="path2872"
         d="M 5.77,0 -2.88,5 V -5 Z"
         style="fill:#000000;fill-opacity:1;fill-rule:evenodd;stroke:#000000;stroke-width:1.00000003pt;stroke-opacity:1"
         transform="scale(0.2)"
         inkscape:connector-curvature="0" />
    </marker>
    <marker
       inkscape:stockid="Arrow2Mend"
       orient="auto"
       refY="0"
       refX="0"
       id="marker1336"
       style="overflow:visible"
       inkscape:isstock="true">
      <path
         id="path1097"
         style="fill:#000000;fill-opacity:1;fill-rule:evenodd;stroke:#000000;stroke-width:0.625;stroke-linejoin:round;stroke-opacity:1"
         d="M 8.7185878,4.0337352 -2.2072895,0.01601326 8.7185884,-4.0017078 c -1.7454984,2.3720609 -1.7354408,5.6174519 -6e-7,8.035443 z"
         transform="scale(-0.6)"
         inkscape:connector-curvature="0" />
    </marker>
    <marker
       inkscape:stockid="TriangleOutM"
       orient="auto"
       refY="0"
       refX="0"
       id="marker1333"
       style="overflow:visible"
       inkscape:isstock="true">
      <path
         id="path1215"
         d="M 5.77,0 -2.88,5 V -5 Z"
         style="fill:#000000;fill-opacity:1;fill-rule:evenodd;stroke:#000000;stroke-width:1.00000003pt;stroke-opacity:1"
         transform="scale(0.4)"
         inkscape:connector-curvature="0" />
    </marker>
    <marker
       inkscape:stockid="TriangleOutM"
       orient="auto"
       refY="0"
       refX="0"
       id="TriangleOutM"
       style="overflow:visible"
       inkscape:isstock="true">
      <path
         id="path4943"
         d="M 5.77,0 -2.88,5 V -5 Z"
         style="fill:#000000;fill-opacity:1;fill-rule:evenodd;stroke:#000000;stroke-width:1.00000003pt;stroke-opacity:1"
         transform="scale(0.4)"
         inkscape:connector-curvature="0" />
    </marker>
    <marker
       inkscape:stockid="Arrow1Lstart"
       orient="auto"
       refY="0"
       refX="0"
       id="marker5984"
       style="overflow:visible"
       inkscape:isstock="true">
      <path
         id="path5982"
         d="M 0,0 5,-5 -12.5,0 5,5 Z"
         style="fill:#000000;fill-opacity:1;fill-rule:evenodd;stroke:#000000;stroke-width:1.00000003pt;stroke-opacity:1"
         transform="matrix(0.8,0,0,0.8,10,0)"
         inkscape:connector-curvature="0" />
    </marker>
    <marker
       inkscape:stockid="Arrow1Lstart"
       orient="auto"
       refY="0"
       refX="0"
       id="marker5890"
       style="overflow:visible"
       inkscape:isstock="true">
      <path
         id="path5888"
         d="M 0,0 5,-5 -12.5,0 5,5 Z"
         style="fill:#000000;fill-opacity:1;fill-rule:evenodd;stroke:#000000;stroke-width:1.00000003pt;stroke-opacity:1"
         transform="matrix(0.8,0,0,0.8,10,0)"
         inkscape:connector-curvature="0" />
    </marker>
    <marker
       inkscape:stockid="Arrow1Lstart"
       orient="auto"
       refY="0"
       refX="0"
       id="marker5814"
       style="overflow:visible"
       inkscape:isstock="true">
      <path
         id="path5812"
         d="M 0,0 5,-5 -12.5,0 5,5 Z"
         style="fill:#000000;fill-opacity:1;fill-rule:evenodd;stroke:#000000;stroke-width:1.00000003pt;stroke-opacity:1"
         transform="matrix(0.8,0,0,0.8,10,0)"
         inkscape:connector-curvature="0" />
    </marker>
    <marker
       inkscape:stockid="Arrow1Lstart"
       orient="auto"
       refY="0"
       refX="0"
       id="marker5756"
       style="overflow:visible"
       inkscape:isstock="true">
      <path
         id="path5754"
         d="M 0,0 5,-5 -12.5,0 5,5 Z"
         style="fill:#000000;fill-opacity:1;fill-rule:evenodd;stroke:#000000;stroke-width:1.00000003pt;stroke-opacity:1"
         transform="matrix(0.8,0,0,0.8,10,0)"
         inkscape:connector-curvature="0" />
    </marker>
    <marker
       inkscape:stockid="Arrow1Lstart"
       orient="auto"
       refY="0"
       refX="0"
       id="Arrow1Lstart"
       style="overflow:visible"
       inkscape:isstock="true">
      <path
         id="path4798"
         d="M 0,0 5,-5 -12.5,0 5,5 Z"
         style="fill:#000000;fill-opacity:1;fill-rule:evenodd;stroke:#000000;stroke-width:1.00000003pt;stroke-opacity:1"
         transform="matrix(0.8,0,0,0.8,10,0)"
         inkscape:connector-curvature="0" />
    </marker>
    <marker
       inkscape:stockid="Arrow2Mend"
       orient="auto"
       refY="0"
       refX="0"
       id="Arrow2Mend"
       style="overflow:visible"
       inkscape:isstock="true">
      <path
         id="path4825"
         style="fill:#000000;fill-opacity:1;fill-rule:evenodd;stroke:#000000;stroke-width:0.625;stroke-linejoin:round;stroke-opacity:1"
         d="M 8.7185878,4.0337352 -2.2072895,0.01601326 8.7185884,-4.0017078 c -1.7454984,2.3720609 -1.7354408,5.6174519 -6e-7,8.035443 z"
         transform="scale(-0.6)"
         inkscape:connector-curvature="0" />
    </marker>
    <marker
       inkscape:stockid="TriangleOutM"
       orient="auto"
       refY="0"
       refX="0"
       id="TriangleOutM-1"
       style="overflow:visible"
       inkscape:isstock="true">
      <path
         inkscape:connector-curvature="0"
         id="path4943-5"
         d="M 5.77,0 -2.88,5 V -5 Z"
         style="fill:#000000;fill-opacity:1;fill-rule:evenodd;stroke:#000000;stroke-width:1.00000003pt;stroke-opacity:1"
         transform="scale(0.4)" />
    </marker>
    <marker
       inkscape:stockid="TriangleOutM"
       orient="auto"
       refY="0"
       refX="0"
       id="TriangleOutM-7"
       style="overflow:visible"
       inkscape:isstock="true">
      <path
         inkscape:connector-curvature="0"
         id="path4943-7"
         d="M 5.77,0 -2.88,5 V -5 Z"
         style="fill:#000000;fill-opacity:1;fill-rule:evenodd;stroke:#000000;stroke-width:1.00000003pt;stroke-opacity:1"
         transform="scale(0.4)" />
    </marker>
    <marker
       inkscape:stockid="TriangleOutM"
       orient="auto"
       refY="0"
       refX="0"
       id="TriangleOutM-73"
       style="overflow:visible"
       inkscape:isstock="true">
      <path
         inkscape:connector-curvature="0"
         id="path4943-6"
         d="M 5.77,0 -2.88,5 V -5 Z"
         style="fill:#000000;fill-opacity:1;fill-rule:evenodd;stroke:#000000;stroke-width:1.00000003pt;stroke-opacity:1"
         transform="scale(0.4)" />
    </marker>
    <marker
       inkscape:stockid="TriangleOutM"
       orient="auto"
       refY="0"
       refX="0"
       id="TriangleOutM-73-1"
       style="overflow:visible"
       inkscape:isstock="true">
      <path
         inkscape:connector-curvature="0"
         id="path4943-6-8"
         d="M 5.77,0 -2.88,5 V -5 Z"
         style="fill:#000000;fill-opacity:1;fill-rule:evenodd;stroke:#000000;stroke-width:1.00000003pt;stroke-opacity:1"
         transform="scale(0.4)" />
    </marker>
    <marker
       inkscape:stockid="TriangleOutM"
       orient="auto"
       refY="0"
       refX="0"
       id="TriangleOutM-73-1-9"
       style="overflow:visible"
       inkscape:isstock="true">
      <path
         inkscape:connector-curvature="0"
         id="path4943-6-8-2"
         d="M 5.77,0 -2.88,5 V -5 Z"
         style="fill:#000000;fill-opacity:1;fill-rule:evenodd;stroke:#000000;stroke-width:1.00000003pt;stroke-opacity:1"
         transform="scale(0.4)" />
    </marker>
    <marker
       inkscape:stockid="TriangleOutM"
       orient="auto"
       refY="0"
       refX="0"
       id="TriangleOutM-73-1-9-0"
       style="overflow:visible"
       inkscape:isstock="true">
      <path
         inkscape:connector-curvature="0"
         id="path4943-6-8-2-3"
         d="M 5.77,0 -2.88,5 V -5 Z"
         style="fill:#000000;fill-opacity:1;fill-rule:evenodd;stroke:#000000;stroke-width:1.00000003pt;stroke-opacity:1"
         transform="scale(0.4)" />
    </marker>
    <marker
       inkscape:isstock="true"
       style="overflow:visible"
       id="marker3156-5"
       refX="0"
       refY="0"
       orient="auto"
       inkscape:stockid="TriangleOutS">
      <path
         inkscape:connector-curvature="0"
         transform="scale(0.2)"
         style="fill:#000000;fill-opacity:1;fill-rule:evenodd;stroke:#000000;stroke-width:1.00000003pt;stroke-opacity:1"
         d="M 5.77,0 -2.88,5 V -5 Z"
         id="path3154-0" />
    </marker>
    <marker
       inkscape:isstock="true"
       style="overflow:visible"
       id="marker3104-5"
       refX="0"
       refY="0"
       orient="auto"
       inkscape:stockid="TriangleOutS">
      <path
         inkscape:connector-curvature="0"
         transform="scale(0.2)"
         style="fill:#000000;fill-opacity:1;fill-rule:evenodd;stroke:#000000;stroke-width:1.00000003pt;stroke-opacity:1"
         d="M 5.77,0 -2.88,5 V -5 Z"
         id="path3102-0" />
    </marker>
    <marker
       inkscape:isstock="true"
       style="overflow:visible"
       id="marker3156-2"
       refX="0"
       refY="0"
       orient="auto"
       inkscape:stockid="TriangleOutS">
      <path
         inkscape:connector-curvature="0"
         transform="scale(0.2)"
         style="fill:#000000;fill-opacity:1;fill-rule:evenodd;stroke:#000000;stroke-width:1.00000003pt;stroke-opacity:1"
         d="M 5.77,0 -2.88,5 V -5 Z"
         id="path3154-2" />
    </marker>
    <marker
       inkscape:isstock="true"
       style="overflow:visible"
       id="marker3156-2-0"
       refX="0"
       refY="0"
       orient="auto"
       inkscape:stockid="TriangleOutS">
      <path
         inkscape:connector-curvature="0"
         transform="scale(0.2)"
         style="fill:#000000;fill-opacity:1;fill-rule:evenodd;stroke:#000000;stroke-width:1.00000003pt;stroke-opacity:1"
         d="M 5.77,0 -2.88,5 V -5 Z"
         id="path3154-2-4" />
    </marker>
    <marker
       inkscape:isstock="true"
       style="overflow:visible"
       id="marker3156-2-3"
       refX="0"
       refY="0"
       orient="auto"
       inkscape:stockid="TriangleOutS">
      <path
         inkscape:connector-curvature="0"
         transform="scale(0.2)"
         style="fill:#000000;fill-opacity:1;fill-rule:evenodd;stroke:#000000;stroke-width:1.00000003pt;stroke-opacity:1"
         d="M 5.77,0 -2.88,5 V -5 Z"
         id="path3154-2-2" />
    </marker>
    <marker
       inkscape:isstock="true"
       style="overflow:visible"
       id="marker3156-9"
       refX="0"
       refY="0"
       orient="auto"
       inkscape:stockid="TriangleOutS">
      <path
         transform="scale(0.2)"
         style="fill:#000000;fill-opacity:1;fill-rule:evenodd;stroke:#000000;stroke-width:1.00000003pt;stroke-opacity:1"
         d="M 5.77,0 -2.88,5 V -5 Z"
         id="path3154-27"
         inkscape:connector-curvature="0" />
    </marker>
    <marker
       inkscape:isstock="true"
       style="overflow:visible"
       id="marker3156-5-3"
       refX="0"
       refY="0"
       orient="auto"
       inkscape:stockid="TriangleOutS">
      <path
         inkscape:connector-curvature="0"
         transform="scale(0.2)"
         style="fill:#000000;fill-opacity:1;fill-rule:evenodd;stroke:#000000;stroke-width:1.00000003pt;stroke-opacity:1"
         d="M 5.77,0 -2.88,5 V -5 Z"
         id="path3154-0-6" />
    </marker>
  </defs>
  <sodipodi:namedview
     id="base"
     pagecolor="#ffffff"
     bordercolor="#666666"
     borderopacity="1.0"
     inkscape:pageopacity="0.0"
     inkscape:pageshadow="2"
     inkscape:zoom="1"
     inkscape:cx="477.91263"
     inkscape:cy="108.1544"
     inkscape:document-units="px"
     inkscape:current-layer="layer1"
     showgrid="true"
     inkscape:snap-text-baseline="true"
     fit-margin-top="5"
     fit-margin-left="5"
     fit-margin-right="5"
     fit-margin-bottom="5"
     units="px"
     scale-x="0.175"
     inkscape:snap-midpoints="true"
     inkscape:snap-grids="true"
     inkscape:snap-others="true"
     inkscape:snap-object-midpoints="true"
     inkscape:snap-bbox="false"
     inkscape:snap-bbox-midpoints="true"
     inkscape:snap-bbox-edge-midpoints="false"
     inkscape:bbox-nodes="true"
     inkscape:bbox-paths="true"
     inkscape:snap-intersection-paths="true"
     inkscape:snap-smooth-nodes="true"
     inkscape:snap-nodes="true">
    <inkscape:grid
       type="xygrid"
       id="grid4518"
       originx="-3.6822719"
       originy="-61.49248" />
  </sodipodi:namedview>
  <metadata
     id="metadata5">
    <rdf:RDF>
      <cc:Work
         rdf:about="">
        <dc:format>image/svg+xml</dc:format>
        <dc:type
           rdf:resource="http://purl.org/dc/dcmitype/StillImage" />
        <dc:title />
      </cc:Work>
    </rdf:RDF>
  </metadata>
  <g
     inkscape:label="Layer 1"
     inkscape:groupmode="layer"
     id="layer1"
     transform="translate(2.573995,10.22986)">
    <path
       style="fill:none;stroke:#000000;stroke-width:0.26503938;stroke-linecap:butt;stroke-linejoin:miter;stroke-miterlimit:4;stroke-dasharray:none;stroke-dashoffset:0;stroke-opacity:1;marker-end:url(#marker3156-2-0)"
       d="m 49.843733,18.80266 h 2.125"
       id="path5671-0-6-69-2"
       inkscape:connector-curvature="0"
       sodipodi:nodetypes="cc" />
    <rect
       style="display:inline;opacity:1;fill:#fce4ec;fill-opacity:1;stroke:#78909c;stroke-width:0.26503935;stroke-linecap:butt;stroke-miterlimit:4;stroke-dasharray:none;stroke-dashoffset:0;stroke-opacity:1"
       id="rect817-1-4"
       width="5.9500008"
       height="2.55"
       x="43.893734"
       y="17.52766" />
    <path
       style="fill:none;stroke:#000000;stroke-width:0.26503938;stroke-linecap:butt;stroke-linejoin:miter;stroke-miterlimit:4;stroke-dasharray:none;stroke-dashoffset:0;stroke-opacity:1;marker-end:url(#marker3156-2)"
       d="m 49.843733,-4.1473402 2.125,-10e-8"
       id="path5671-0-6-69"
       inkscape:connector-curvature="0"
       sodipodi:nodetypes="cc" />
    <rect
       style="display:inline;opacity:1;fill:#ffffff;fill-opacity:1;stroke:#78909c;stroke-width:0.26503935;stroke-linecap:butt;stroke-miterlimit:4;stroke-dasharray:none;stroke-dashoffset:0;stroke-opacity:1"
       id="rect817"
       width="32.724998"
       height="22.1"
       x="9.893733"
       y="0.52765983" />
    <text
       xml:space="preserve"
       style="font-style:normal;font-variant:normal;font-weight:normal;font-stretch:normal;font-size:2.11666656px;line-height:1;font-family:'Source Code Pro';-inkscape-font-specification:'Source Code Pro';letter-spacing:0px;word-spacing:0px;fill:#000000;fill-opacity:1;stroke:none;stroke-width:0.26458332"
       x="-15.875"
       y="-11.239584"
       id="text6804"><tspan
         sodipodi:role="line"
         id="tspan6802"
         x="-15.875"
         y="-9.6520844"
         style="font-style:normal;font-variant:normal;font-weight:normal;font-stretch:normal;font-family:'M+ 1c';-inkscape-font-specification:'M+ 1c';stroke-width:0.26458332" /></text>
    <path
       style="fill:none;stroke:#000000;stroke-width:0.26499999;stroke-linecap:butt;stroke-linejoin:miter;stroke-miterlimit:3.9000001;stroke-dasharray:none;stroke-opacity:1;marker-end:url(#marker3872)"
       d="m 39.643734,18.80266 h 3.824999"
       id="path5688-5-7-2-1"
       inkscape:connector-curvature="0"
       sodipodi:nodetypes="cc" />
    <g
       id="g1968"
       transform="translate(-8.1565273e-8,-1.7000015)">
      <path
         inkscape:connector-curvature="0"
         id="path5671-9-2"
         d="m 30.718734,20.502661 h 4.25"
         style="fill:none;stroke:#000000;stroke-width:0.26503938;stroke-linecap:butt;stroke-linejoin:miter;stroke-miterlimit:4;stroke-dasharray:0.26503937, 0.53007875;stroke-dashoffset:0;stroke-opacity:1" />
      <g
         transform="translate(-1.6999996,32.300001)"
         id="g1017-2-6">
        <rect
           style="opacity:1;fill:#fff59d;fill-opacity:1;stroke:#78909c;stroke-width:0.26503935;stroke-linecap:butt;stroke-miterlimit:4;stroke-dasharray:none;stroke-dashoffset:0;stroke-opacity:1"
           id="rect957-8-1"
           width="4.2500014"
           height="4.25"
           x="18.393732"
           y="-13.922339" />
        <text
           xml:space="preserve"
           style="font-style:normal;font-variant:normal;font-weight:normal;font-stretch:normal;font-size:0.68000001px;line-height:1;font-family:'Source Code Pro';-inkscape-font-specification:'Source Code Pro';letter-spacing:0px;word-spacing:0px;fill:#000000;fill-opacity:1;stroke:none;stroke-width:0.085"
           x="18.894896"
           y="-11.218886"
           id="text961-9-5"><tspan
             sodipodi:role="line"
             id="tspan959-7-5"
             x="18.894896"
             y="-11.218886"
             style="font-size:1.81333339px;stroke-width:0.085">225</tspan></text>
      </g>
      <g
         transform="translate(-6.7999978,32.300001)"
         id="g1022-3-4">
        <rect
           style="opacity:1;fill:#fff59d;fill-opacity:1;stroke:#78909c;stroke-width:0.26503938;stroke-linecap:butt;stroke-miterlimit:4;stroke-dasharray:none;stroke-dashoffset:0;stroke-opacity:1"
           id="rect957-7-6-7"
           width="4.2500019"
           height="4.25"
           x="28.168732"
           y="-13.922339" />
        <text
           xml:space="preserve"
           style="font-style:normal;font-variant:normal;font-weight:normal;font-stretch:normal;font-size:0.68000001px;line-height:1;font-family:'Source Code Pro';-inkscape-font-specification:'Source Code Pro';letter-spacing:0px;word-spacing:0px;fill:#000000;fill-opacity:1;stroke:none;stroke-width:0.085"
           x="28.659016"
           y="-11.218886"
           id="text961-5-1-6"><tspan
             sodipodi:role="line"
             id="tspan959-3-2-5"
             x="28.659016"
             y="-11.218886"
             style="font-size:1.81333339px;stroke-width:0.085">226</tspan></text>
      </g>
      <g
         transform="translate(-11.9,31.875)"
         id="g1027-9-6">
        <rect
           style="opacity:1;fill:#fff59d;fill-opacity:1;stroke:#78909c;stroke-width:0.26503938;stroke-linecap:butt;stroke-miterlimit:4;stroke-dasharray:none;stroke-dashoffset:0;stroke-opacity:1"
           id="rect957-5-3-9"
           width="4.2500019"
           height="4.25"
           x="37.943733"
           y="-13.497339" />
        <text
           xml:space="preserve"
           style="font-style:normal;font-variant:normal;font-weight:normal;font-stretch:normal;font-size:0.68000001px;line-height:1;font-family:'Source Code Pro';-inkscape-font-specification:'Source Code Pro';letter-spacing:0px;word-spacing:0px;fill:#000000;fill-opacity:1;stroke:none;stroke-width:0.085"
           x="38.435829"
           y="-10.793886"
           id="text961-6-1-3"><tspan
             sodipodi:role="line"
             id="tspan959-2-9-7"
             x="38.435829"
             y="-10.793886"
             style="font-size:1.81333339px;stroke-width:0.085">227</tspan></text>
      </g>
      <g
         transform="translate(-11.474998,31.875)"
         id="g1032-4-4">
        <rect
           style="opacity:1;fill:#fff59d;fill-opacity:1;stroke:#78909c;stroke-width:0.26503938;stroke-linecap:butt;stroke-miterlimit:4;stroke-dasharray:none;stroke-dashoffset:0;stroke-opacity:1"
           id="rect957-9-7-5"
           width="4.2500019"
           height="4.25"
           x="46.868732"
           y="-13.497339" />
        <text
           xml:space="preserve"
           style="font-style:normal;font-variant:normal;font-weight:normal;font-stretch:normal;font-size:0.68000001px;line-height:1;font-family:'Source Code Pro';-inkscape-font-specification:'Source Code Pro';letter-spacing:0px;word-spacing:0px;fill:#000000;fill-opacity:1;stroke:none;stroke-width:0.085"
           x="47.369896"
           y="-10.793886"
           id="text961-1-8-2"><tspan
             sodipodi:role="line"
             id="tspan959-27-4-5"
             x="47.369896"
             y="-10.793886"
             style="font-size:1.81333339px;stroke-width:0.085">232</tspan></text>
      </g>
    </g>
    <path
       style="fill:none;stroke:#000000;stroke-width:0.26503938;stroke-linecap:butt;stroke-linejoin:miter;stroke-miterlimit:4;stroke-dasharray:none;stroke-dashoffset:0;stroke-opacity:1;marker-end:url(#marker3442)"
       d="m 39.643734,9.4526599 h 2.125 l 10e-7,2.9750001 H 14.568733 m 0,4.675 v 1.7 h 1.7"
       id="path5671-0-3"
       inkscape:connector-curvature="0"
       sodipodi:nodetypes="ccccccc" />
    <g
       id="g1701">
      <path
         inkscape:connector-curvature="0"
         id="path5671-9"
         d="m 30.718735,9.45266 h 4.25"
         style="fill:none;stroke:#000000;stroke-width:0.26503938;stroke-linecap:butt;stroke-linejoin:miter;stroke-miterlimit:4;stroke-dasharray:0.26503937, 0.53007875;stroke-dashoffset:0;stroke-opacity:1" />
      <g
         transform="translate(-1.6999987,21.25)"
         id="g1017-2">
        <rect
           style="opacity:1;fill:#fff59d;fill-opacity:1;stroke:#78909c;stroke-width:0.26503935;stroke-linecap:butt;stroke-miterlimit:4;stroke-dasharray:none;stroke-dashoffset:0;stroke-opacity:1"
           id="rect957-8"
           width="4.2500014"
           height="4.25"
           x="18.393732"
           y="-13.922339" />
        <text
           xml:space="preserve"
           style="font-style:normal;font-variant:normal;font-weight:normal;font-stretch:normal;font-size:0.68000001px;line-height:1;font-family:'Source Code Pro';-inkscape-font-specification:'Source Code Pro';letter-spacing:0px;word-spacing:0px;fill:#000000;fill-opacity:1;stroke:none;stroke-width:0.085"
           x="19.982893"
           y="-11.218886"
           id="text961-9"><tspan
             sodipodi:role="line"
             id="tspan959-7"
             x="19.982893"
             y="-11.218886"
             style="font-size:1.81333339px;stroke-width:0.085">9</tspan></text>
      </g>
      <g
         transform="translate(-6.7999969,21.25)"
         id="g1022-3">
        <rect
           style="opacity:1;fill:#fff59d;fill-opacity:1;stroke:#78909c;stroke-width:0.26503938;stroke-linecap:butt;stroke-miterlimit:4;stroke-dasharray:none;stroke-dashoffset:0;stroke-opacity:1"
           id="rect957-7-6"
           width="4.2500019"
           height="4.25"
           x="28.168732"
           y="-13.922339" />
        <text
           xml:space="preserve"
           style="font-style:normal;font-variant:normal;font-weight:normal;font-stretch:normal;font-size:0.68000001px;line-height:1;font-family:'Source Code Pro';-inkscape-font-specification:'Source Code Pro';letter-spacing:0px;word-spacing:0px;fill:#000000;fill-opacity:1;stroke:none;stroke-width:0.085"
           x="29.182161"
           y="-11.218886"
           id="text961-5-1"><tspan
             sodipodi:role="line"
             id="tspan959-3-2"
             x="29.182161"
             y="-11.218886"
             style="font-size:1.81333339px;stroke-width:0.085">10</tspan></text>
      </g>
      <g
         transform="translate(-11.899999,20.824999)"
         id="g1027-9">
        <rect
           style="opacity:1;fill:#fff59d;fill-opacity:1;stroke:#78909c;stroke-width:0.26503938;stroke-linecap:butt;stroke-miterlimit:4;stroke-dasharray:none;stroke-dashoffset:0;stroke-opacity:1"
           id="rect957-5-3"
           width="4.2500019"
           height="4.25"
           x="37.943733"
           y="-13.497339" />
        <text
           xml:space="preserve"
           style="font-style:normal;font-variant:normal;font-weight:normal;font-stretch:normal;font-size:0.68000001px;line-height:1;font-family:'Source Code Pro';-inkscape-font-specification:'Source Code Pro';letter-spacing:0px;word-spacing:0px;fill:#000000;fill-opacity:1;stroke:none;stroke-width:0.085"
           x="38.956257"
           y="-10.793886"
           id="text961-6-1"><tspan
             sodipodi:role="line"
             id="tspan959-2-9"
             x="38.956257"
             y="-10.793886"
             style="font-size:1.81333339px;stroke-width:0.085">11</tspan></text>
      </g>
      <g
         transform="translate(-11.474997,20.824999)"
         id="g1032-4">
        <rect
           style="opacity:1;fill:#fff59d;fill-opacity:1;stroke:#78909c;stroke-width:0.26503938;stroke-linecap:butt;stroke-miterlimit:4;stroke-dasharray:none;stroke-dashoffset:0;stroke-opacity:1"
           id="rect957-9-7"
           width="4.2500019"
           height="4.25"
           x="46.868732"
           y="-13.497339" />
        <text
           xml:space="preserve"
           style="font-style:normal;font-variant:normal;font-weight:normal;font-stretch:normal;font-size:0.68000001px;line-height:1;font-family:'Source Code Pro';-inkscape-font-specification:'Source Code Pro';letter-spacing:0px;word-spacing:0px;fill:#000000;fill-opacity:1;stroke:none;stroke-width:0.085"
           x="47.877628"
           y="-10.783006"
           id="text961-1-8"><tspan
             sodipodi:role="line"
             id="tspan959-27-4"
             x="47.877628"
             y="-10.783006"
             style="font-size:1.81333339px;stroke-width:0.085">16</tspan></text>
      </g>
    </g>
    <path
       style="fill:none;stroke:#000000;stroke-width:0.26503938;stroke-linecap:butt;stroke-linejoin:miter;stroke-miterlimit:4;stroke-dasharray:none;stroke-dashoffset:0;stroke-opacity:1;marker-end:url(#marker3292)"
       d="m 39.643734,3.5026599 h 2.125 l -1e-6,2.9750004 -27.2,-4e-7 v 2.975 h 1.7"
       id="path5671-0"
       inkscape:connector-curvature="0"
       sodipodi:nodetypes="cccccc" />
    <g
       id="g1682">
      <path
         inkscape:connector-curvature="0"
         id="path5671"
         d="m 30.718733,3.50266 h 4.25"
         style="fill:none;stroke:#000000;stroke-width:0.26503938;stroke-linecap:butt;stroke-linejoin:miter;stroke-miterlimit:4;stroke-dasharray:0.26503937, 0.53007875;stroke-dashoffset:0;stroke-opacity:1" />
      <g
         transform="translate(-1.7000005,15.3)"
         id="g1017">
        <rect
           style="opacity:1;fill:#fff59d;fill-opacity:1;stroke:#78909c;stroke-width:0.26503935;stroke-linecap:butt;stroke-miterlimit:4;stroke-dasharray:none;stroke-dashoffset:0;stroke-opacity:1"
           id="rect957"
           width="4.2500014"
           height="4.25"
           x="18.393732"
           y="-13.922339" />
        <text
           xml:space="preserve"
           style="font-style:normal;font-variant:normal;font-weight:normal;font-stretch:normal;font-size:0.68000001px;line-height:1;font-family:'Source Code Pro';-inkscape-font-specification:'Source Code Pro';letter-spacing:0px;word-spacing:0px;fill:#000000;fill-opacity:1;stroke:none;stroke-width:0.085"
           x="19.950253"
           y="-11.218886"
           id="text961"><tspan
             sodipodi:role="line"
             id="tspan959"
             x="19.950253"
             y="-11.218886"
             style="font-size:1.81333339px;stroke-width:0.085">1</tspan></text>
      </g>
      <g
         transform="translate(-6.7999987,15.3)"
         id="g1022">
        <rect
           style="opacity:1;fill:#fff59d;fill-opacity:1;stroke:#78909c;stroke-width:0.26503938;stroke-linecap:butt;stroke-miterlimit:4;stroke-dasharray:none;stroke-dashoffset:0;stroke-opacity:1"
           id="rect957-7"
           width="4.2500019"
           height="4.25"
           x="28.168732"
           y="-13.922339" />
        <text
           xml:space="preserve"
           style="font-style:normal;font-variant:normal;font-weight:normal;font-stretch:normal;font-size:0.68000001px;line-height:1;font-family:'Source Code Pro';-inkscape-font-specification:'Source Code Pro';letter-spacing:0px;word-spacing:0px;fill:#000000;fill-opacity:1;stroke:none;stroke-width:0.085"
           x="29.757893"
           y="-11.208006"
           id="text961-5"><tspan
             sodipodi:role="line"
             id="tspan959-3"
             x="29.757893"
             y="-11.208006"
             style="font-size:1.81333339px;stroke-width:0.085">2</tspan></text>
      </g>
      <g
         transform="translate(-11.9,14.874999)"
         id="g1027">
        <rect
           style="opacity:1;fill:#fff59d;fill-opacity:1;stroke:#78909c;stroke-width:0.26503938;stroke-linecap:butt;stroke-miterlimit:4;stroke-dasharray:none;stroke-dashoffset:0;stroke-opacity:1"
           id="rect957-5"
           width="4.2500019"
           height="4.25"
           x="37.943733"
           y="-13.497339" />
        <text
           xml:space="preserve"
           style="font-style:normal;font-variant:normal;font-weight:normal;font-stretch:normal;font-size:0.68000001px;line-height:1;font-family:'Source Code Pro';-inkscape-font-specification:'Source Code Pro';letter-spacing:0px;word-spacing:0px;fill:#000000;fill-opacity:1;stroke:none;stroke-width:0.085"
           x="39.547401"
           y="-10.793886"
           id="text961-6"><tspan
             sodipodi:role="line"
             id="tspan959-2"
             x="39.547401"
             y="-10.793886"
             style="font-size:1.81333339px;stroke-width:0.085">3</tspan></text>
      </g>
      <g
         transform="translate(-11.474999,14.874999)"
         id="g1032">
        <rect
           style="opacity:1;fill:#fff59d;fill-opacity:1;stroke:#78909c;stroke-width:0.26503938;stroke-linecap:butt;stroke-miterlimit:4;stroke-dasharray:none;stroke-dashoffset:0;stroke-opacity:1"
           id="rect957-9"
           width="4.2500019"
           height="4.25"
           x="46.868732"
           y="-13.497339" />
        <text
           xml:space="preserve"
           style="font-style:normal;font-variant:normal;font-weight:normal;font-stretch:normal;font-size:0.68000001px;line-height:1;font-family:'Source Code Pro';-inkscape-font-specification:'Source Code Pro';letter-spacing:0px;word-spacing:0px;fill:#000000;fill-opacity:1;stroke:none;stroke-width:0.085"
           x="48.439758"
           y="-10.793886"
           id="text961-1"><tspan
             sodipodi:role="line"
             id="tspan959-27"
             x="48.439758"
             y="-10.793886"
             style="font-size:1.81333339px;stroke-width:0.085">8</tspan></text>
      </g>
    </g>
    <text
       xml:space="preserve"
       style="font-style:normal;font-variant:normal;font-weight:normal;font-stretch:normal;font-size:1.36000001px;line-height:1;font-family:Prime;-inkscape-font-specification:Prime;letter-spacing:0px;word-spacing:0px;fill:#000000;fill-opacity:1;stroke:none;stroke-width:0.085"
       x="16.693733"
       y="-2.0223417"
       id="text1876-0"><tspan
         sodipodi:role="line"
         id="tspan1874-7"
         x="16.693733"
         y="-2.0223417"
         style="font-style:normal;font-variant:normal;font-weight:normal;font-stretch:normal;font-family:'Rounded M+ 2p';-inkscape-font-specification:'Rounded M+ 2p';text-align:start;text-anchor:start;stroke-width:0.085">描画パイプライン</tspan><tspan
         sodipodi:role="line"
         x="16.693733"
         y="-0.51274168"
         style="font-style:normal;font-variant:normal;font-weight:normal;font-stretch:normal;font-family:'Rounded M+ 2p';-inkscape-font-specification:'Rounded M+ 2p';text-align:start;text-anchor:start;stroke-width:0.085"
         id="tspan1933">(終了判定1 + f(z) 評価7 の8ステージ x 29ユニット)</tspan></text>
    <text
       xml:space="preserve"
       style="font-style:normal;font-variant:normal;font-weight:normal;font-stretch:normal;font-size:1.36000001px;line-height:1;font-family:Prime;-inkscape-font-specification:Prime;letter-spacing:0px;word-spacing:0px;fill:#000000;fill-opacity:1;stroke:none;stroke-width:0.085"
       x="43.503544"
       y="17.102659"
       id="text1876-6"><tspan
         sodipodi:role="line"
         id="tspan1874-3"
         x="43.503544"
         y="17.102659"
         style="font-style:normal;font-variant:normal;font-weight:normal;font-stretch:normal;font-family:'Rounded M+ 2p';-inkscape-font-specification:'Rounded M+ 2p';stroke-width:0.085">色割り当て</tspan></text>
    <text
       xml:space="preserve"
       style="font-style:normal;font-variant:normal;font-weight:normal;font-stretch:normal;font-size:1.36000001px;line-height:1;font-family:Prime;-inkscape-font-specification:Prime;letter-spacing:0px;word-spacing:0px;fill:#000000;fill-opacity:1;stroke:none;stroke-width:0.085"
       x="42.675442"
       y="-5.8473401"
       id="text1876-7"><tspan
         sodipodi:role="line"
         id="tspan1874-6"
         x="42.675442"
         y="-5.8473401"
         style="font-style:normal;font-variant:normal;font-weight:normal;font-stretch:normal;font-family:'Rounded M+ 2p';-inkscape-font-specification:'Rounded M+ 2p';stroke-width:0.085">制御信号生成</tspan></text>
    <path
       style="fill:none;stroke:#000000;stroke-width:0.26503938;stroke-linecap:butt;stroke-linejoin:miter;stroke-miterlimit:4;stroke-dasharray:none;stroke-dashoffset:0;stroke-opacity:1;marker-end:url(#marker3156)"
       d="m 14.143733,3.50266 2.125,-1e-7"
       id="path5671-0-6"
       inkscape:connector-curvature="0"
       sodipodi:nodetypes="cc" />
    <path
       style="fill:#c5e1a5;fill-opacity:1;stroke:#78909c;stroke-width:0.26503938;stroke-linecap:butt;stroke-linejoin:miter;stroke-miterlimit:4;stroke-dasharray:none;stroke-opacity:1"
       d="M 12.868733,2.227659 V 4.77766 l 1.274999,-0.425 V 2.652659 Z"
       id="path955"
       inkscape:connector-curvature="0"
       sodipodi:nodetypes="ccccc" />
    <path
       style="fill:none;stroke:#000000;stroke-width:0.26503;stroke-linecap:butt;stroke-linejoin:miter;stroke-miterlimit:4;stroke-dasharray:none;stroke-opacity:1;marker-end:url(#marker3104)"
       d="m 3.0937332,2.6526594 9.3499998,5e-7"
       id="path1587"
       inkscape:connector-curvature="0"
       sodipodi:nodetypes="cc" />
    <path
       style="fill:#ffcc80;fill-opacity:1;stroke:#78909c;stroke-width:0.26503938;stroke-linecap:butt;stroke-linejoin:miter;stroke-miterlimit:4;stroke-dasharray:none;stroke-opacity:1"
       d="m -1.1562669,0.52765954 h 3.4000004 l 0.8499997,2.12499966 -0.8499997,2.125 h -3.4000004 l -0.85,-2.125 z"
       id="path930-6-7"
       inkscape:connector-curvature="0"
       sodipodi:nodetypes="ccccccc" />
    <text
       xml:space="preserve"
       style="font-style:normal;font-variant:normal;font-weight:normal;font-stretch:normal;font-size:1.36000001px;line-height:1;font-family:Prime;-inkscape-font-specification:Prime;letter-spacing:0px;word-spacing:0px;fill:#000000;fill-opacity:1;stroke:none;stroke-width:0.085"
       x="3.0937331"
       y="4.3526592"
       id="text1876-9"><tspan
         sodipodi:role="line"
         id="tspan1874-9"
         x="3.0937331"
         y="4.3526592"
         style="font-style:normal;font-variant:normal;font-weight:normal;font-stretch:normal;font-family:'Rounded M+ 2p';-inkscape-font-specification:'Rounded M+ 2p';stroke-width:0.085">x, y, z0 の</tspan><tspan
         sodipodi:role="line"
         x="3.0937331"
         y="5.8622594"
         style="font-style:normal;font-variant:normal;font-weight:normal;font-stretch:normal;font-family:'Rounded M+ 2p';-inkscape-font-specification:'Rounded M+ 2p';stroke-width:0.085"
         id="tspan1923">カウンタ</tspan></text>
    <path
       style="fill:none;stroke:#000000;stroke-width:0.26503938;stroke-linecap:butt;stroke-linejoin:miter;stroke-miterlimit:4;stroke-dasharray:none;stroke-dashoffset:0;stroke-opacity:1;marker-end:url(#TriangleOutS)"
       d="m 41.768734,18.80266 v 2.975 H 10.743733 V 4.3526599 h 1.7"
       id="path5671-0-3-0"
       inkscape:connector-curvature="0"
       sodipodi:nodetypes="ccccc" />
    <path
       style="fill:none;stroke:#000000;stroke-width:0.26503938;stroke-linecap:butt;stroke-linejoin:miter;stroke-miterlimit:4;stroke-dasharray:none;stroke-dashoffset:0;stroke-opacity:1;marker-end:url(#marker3156-5)"
       d="m 0.54373306,-5.4102088 1e-7,5.5492664"
       id="path5671-0-6-6"
       inkscape:connector-curvature="0"
       sodipodi:nodetypes="cc" />
    <path
       style="fill:#ffcc80;fill-opacity:1;stroke:#78909c;stroke-width:0.26503938;stroke-linecap:butt;stroke-linejoin:miter;stroke-miterlimit:4;stroke-dasharray:none;stroke-opacity:1"
       d="m -1.1562668,-9.6723407 h 3.4000003 l 0.8499997,2.125 -0.8499997,2.125 h -3.4000003 l -0.85,-2.125 z"
       id="path930-6"
       inkscape:connector-curvature="0"
       sodipodi:nodetypes="ccccccc" />
    <text
       xml:space="preserve"
       style="font-style:normal;font-variant:normal;font-weight:normal;font-stretch:normal;font-size:1.36000001px;line-height:1;font-family:Prime;-inkscape-font-specification:Prime;letter-spacing:0px;word-spacing:0px;fill:#000000;fill-opacity:1;stroke:none;stroke-width:0.085"
       x="3.0937331"
       y="-6.2723408"
       id="text1876"><tspan
         sodipodi:role="line"
         id="tspan1874"
         x="3.0937331"
         y="-6.2723408"
         style="font-style:normal;font-variant:normal;font-weight:normal;font-stretch:normal;font-family:'Rounded M+ 2p';-inkscape-font-specification:'Rounded M+ 2p';stroke-width:0.085">ステートマシン</tspan></text>
    <rect
       style="display:inline;opacity:1;fill:#fce4ec;fill-opacity:1;stroke:#78909c;stroke-width:0.26503935;stroke-linecap:butt;stroke-miterlimit:4;stroke-dasharray:none;stroke-dashoffset:0;stroke-opacity:1"
       id="rect817-1"
       width="5.9500008"
       height="2.55"
       x="43.893734"
       y="-5.4223404" />
    <path
       style="fill:none;stroke:#000000;stroke-width:0.26503;stroke-linecap:butt;stroke-linejoin:miter;stroke-miterlimit:4;stroke-dasharray:none;stroke-opacity:1;marker-end:url(#marker3104-5)"
       d="m 0.54373315,-4.1473407 42.92499985,5e-7"
       id="path1587-8"
       inkscape:connector-curvature="0"
       sodipodi:nodetypes="cc" />
    <path
       style="fill:none;stroke:#000000;stroke-width:0.26503938;stroke-linecap:butt;stroke-linejoin:miter;stroke-miterlimit:4;stroke-dasharray:none;stroke-dashoffset:0;stroke-opacity:1;marker-end:url(#marker3156-2-3)"
       d="m 6.4937333,14.552661 h 2.975"
       id="path5671-0-6-69-8"
       inkscape:connector-curvature="0"
       sodipodi:nodetypes="cc" />
    <text
       id="text1876-9-0"
       y="11.15266"
       x="3.5237186"
       style="font-style:normal;font-variant:normal;font-weight:normal;font-stretch:normal;font-size:1.36000001px;line-height:1;font-family:Prime;-inkscape-font-specification:Prime;letter-spacing:0px;word-spacing:0px;fill:#000000;fill-opacity:1;stroke:none;stroke-width:0.085"
       xml:space="preserve"><tspan
         id="tspan1923-7"
         style="font-style:normal;font-variant:normal;font-weight:normal;font-stretch:normal;font-family:'Rounded M+ 2p';-inkscape-font-specification:'Rounded M+ 2p';text-align:center;text-anchor:middle;stroke-width:0.085"
         y="11.15266"
         x="3.5237186"
         sodipodi:role="line">パラメータ指定の</tspan><tspan
         style="font-style:normal;font-variant:normal;font-weight:normal;font-stretch:normal;font-family:'Rounded M+ 2p';-inkscape-font-specification:'Rounded M+ 2p';text-align:center;text-anchor:middle;stroke-width:0.085"
         y="12.66226"
         x="3.5237186"
         sodipodi:role="line"
         id="tspan11207">レジスタ</tspan></text>
    <path
       inkscape:connector-curvature="0"
       id="path5671-9-5"
       d="m 14.568733,12.42766 v 4.675"
       style="fill:none;stroke:#000000;stroke-width:0.26503938;stroke-linecap:butt;stroke-linejoin:miter;stroke-miterlimit:4;stroke-dasharray:0.26503938, 0.53007877;stroke-dashoffset:0;stroke-opacity:1"
       sodipodi:nodetypes="cc" />
    <rect
       style="display:inline;opacity:1;fill:#fce4ec;fill-opacity:1;stroke:#78909c;stroke-width:0.26503935;stroke-linecap:butt;stroke-miterlimit:4;stroke-dasharray:none;stroke-dashoffset:0;stroke-opacity:1"
       id="rect817-1-3"
       width="5.9500008"
       height="2.55"
       x="0.54373246"
       y="13.27766" />
    <path
       style="fill:none;stroke:#000000;stroke-width:0.26503938;stroke-linecap:butt;stroke-linejoin:miter;stroke-miterlimit:4;stroke-dasharray:none;stroke-dashoffset:0;stroke-opacity:1;marker-end:url(#marker3156-9)"
       d="M -2.0062669,14.55266 H 0.11873314"
       id="path5671-0-6-4"
       inkscape:connector-curvature="0"
       sodipodi:nodetypes="cc" />
    <path
       style="fill:none;stroke:#000000;stroke-width:0.26503938;stroke-linecap:butt;stroke-linejoin:miter;stroke-miterlimit:4;stroke-dasharray:none;stroke-dashoffset:0;stroke-opacity:1;marker-end:url(#marker3156-5-3)"
       d="M 13.548733,-4.1473418 V 2.0576583"
       id="path5671-0-6-6-7"
       inkscape:connector-curvature="0"
       sodipodi:nodetypes="cc" />
  </g>
</svg>
